<?xml version="1.0" encoding="UTF-8"?>
<svg width="244px" height="186px" viewBox="0 0 244 186" version="1.1" xmlns="http://www.w3.org/2000/svg" xmlns:xlink="http://www.w3.org/1999/xlink">
    <!-- Generator: Sketch 51.2 (57519) - http://www.bohemiancoding.com/sketch -->
    <title>Group 2</title>
    <desc>Created with Sketch.</desc>
    <defs>
        <polygon id="path-1" points="0.112556891 0.196631286 5.67721033 0.196631286 5.67721033 16.2501905 0.112556891 16.2501905"></polygon>
    </defs>
    <g id="Desktop" stroke="none" stroke-width="1" fill="none" fill-rule="evenodd">
        <g transform="translate(-135.000000, -5086.000000)" id="Programs">
            <g transform="translate(0.000000, 2923.000000)">
                <g id="Group-5" transform="translate(90.000000, 2118.000000)">
                    <g id="Group-2" transform="translate(45.000000, 45.000000)">
                        <path d="M4.30978261,172.690983 C4.30978261,171.87184 4.54682065,170.837134 2.90910326,170.664683 C2.34883152,170.621571 1.52997283,170.664683 1.44377717,170.664683 C1.24983696,170.664683 1.07744565,170.729352 1.07744565,171.117367 L1.07744565,183.25427 C1.07744565,183.577284 1.24983696,183.663509 1.44377717,183.663509 C1.52997283,183.663509 2.34883152,183.706622 2.90910326,183.663509 C4.54682065,183.469502 4.30978261,182.434796 4.30978261,181.594097 L4.30978261,172.690983 Z M5.451875,181.464759 C5.451875,182.283901 5.71046196,184.482983 3.12459239,184.784441 C2.28418478,184.870998 0.861956522,184.870998 0.559940217,184.870998 L0.495625,184.870998 L0.452527174,184.870998 L0.344782609,184.870998 C0.0427663043,184.827885 0,184.655102 0,184.353313 L0,169.952991 C0,169.629977 0.0427663043,169.457526 0.344782609,169.392857 L0.452527174,169.392857 C0.474076087,169.392857 2.28418478,169.392857 3.12459239,169.500639 C5.71046196,169.780872 5.451875,172.022403 5.451875,172.820321 L5.451875,181.464759 Z" id="Fill-1" fill="#222222"></path>
                        <path d="M9.1292517,169.996104 C9.1292517,169.651202 9.19389844,169.478751 9.49558322,169.392857 L9.60332779,169.392857 L14.4521647,169.392857 C14.7323006,169.392857 14.3228713,170.642795 14.0427354,170.642795 L10.7238713,170.642795 C10.529931,170.642795 10.3575397,170.729021 10.3575397,171.095479 L10.3575397,174.84662 C10.3575397,175.061852 10.3790887,175.234635 10.7023224,175.234635 L12.771018,175.234635 C13.396268,175.234635 12.9434093,176.528017 12.5986267,176.528017 L10.7238713,176.528017 C10.55148,176.528017 10.3575397,176.57113 10.3575397,176.829807 L10.3575397,183.1246 C10.3575397,183.490727 10.529931,183.577284 10.7238713,183.577284 L14.020855,183.577284 C14.3013224,183.577284 14.6892028,184.805997 14.387518,184.805997 L9.68952344,184.805997 L9.64642561,184.805997 L9.60332779,184.805997 L9.49558322,184.805997 C9.19389844,184.741328 9.1292517,184.568877 9.1292517,184.223975 L9.1292517,169.996104 Z" id="Fill-3" fill="#222222"></path>
                        <path d="M21.135316,178.597761 C21.4370008,178.597761 21.5231964,178.597761 21.4370008,178.209746 C20.9413758,174.545162 20.5534953,170.664683 20.4888486,170.664683 L20.402653,170.664683 C20.3380062,170.664683 19.9501258,174.545162 19.4545008,178.209746 C19.3679736,178.597761 19.4545008,178.597761 19.7561856,178.597761 L21.135316,178.597761 Z M23.4625986,184.43987 C23.4625986,184.74166 23.2686584,184.827885 23.0100714,184.827885 C22.9023269,184.827885 22.4067019,184.827885 22.3420551,184.504539 C22.3420551,184.375201 22.0834682,182.607578 21.7817834,180.171376 C21.7171366,179.934256 21.630941,179.934256 21.5662943,179.934256 L19.3252073,179.934256 C19.2821095,179.934256 19.1740334,179.934256 19.1097182,180.171376 C18.8077019,182.607578 18.5494464,184.375201 18.5494464,184.504539 C18.5060171,184.827885 17.9888432,184.827885 17.8814301,184.827885 C17.6225116,184.827885 17.4285714,184.74166 17.4285714,184.43987 C17.4285714,184.116525 19.3036584,170.017992 19.3464247,169.780872 C19.411403,169.543752 19.5619138,169.392857 19.7777345,169.392857 L21.1137671,169.392857 C21.3292562,169.392857 21.5231964,169.543752 21.5231964,169.780872 C21.5878432,170.017992 23.4625986,184.116525 23.4625986,184.43987 Z" id="Fill-5" fill="#222222"></path>
                        <path d="M28.5729453,175.150235 C28.5729453,175.365799 28.6160431,175.53825 28.9392768,175.53825 C29.2625105,175.53825 29.8658801,175.559807 30.1029181,175.53825 C32.0854181,175.430468 32.1288475,173.899634 32.1072986,173.145493 C32.1072986,172.240125 32.0854181,170.882073 30.2322116,170.688066 C29.650391,170.623397 29.0901192,170.644621 28.9608258,170.644621 C28.7668855,170.644621 28.5729453,170.731178 28.5729453,171.097305 L28.5729453,175.150235 Z M33.3137062,184.52759 C33.3137062,184.52759 33.2706084,184.872492 32.8184127,184.915605 C32.3871029,184.980606 32.0207714,184.613816 32.0207714,184.613816 C32.0207714,184.613816 29.8012334,177.80167 29.5641953,177.111866 C29.4995486,176.939746 29.4133529,176.853189 29.2840594,176.853189 L28.8746301,176.853189 C28.7237877,176.853189 28.5729453,176.917858 28.5729453,177.111866 L28.5729453,184.52759 C28.5729453,184.76471 28.0988692,184.937161 27.8618312,184.937161 C27.6032442,184.937161 27.3877551,185.001831 27.3877551,184.484478 L27.3877551,169.976374 C27.3877551,169.588359 27.4308529,169.394683 27.9480268,169.394683 C28.3143584,169.394683 29.5641953,169.372795 30.4907986,169.480577 C33.4429997,169.782366 33.2062931,172.391019 33.2278421,173.253274 C33.2278421,173.253274 33.3786844,176.163385 30.7493855,176.766964 L33.3137062,184.52759 Z" id="Fill-7" fill="#222222"></path>
                        <path d="M43.1564626,169.966791 C43.1564626,169.643114 43.1780115,169.470995 43.5227941,169.406326 C43.6736365,169.384438 44.3416528,169.341325 44.3416528,169.72934 L44.3416528,183.224625 C44.3416528,183.612309 44.5140441,183.676978 44.7295332,183.676978 L47.9837506,183.676978 C48.2638865,183.676978 48.3069843,184.862578 48.004968,184.862578 C47.7251637,184.862578 43.544343,184.884135 43.5227941,184.862578 C43.1780115,184.819466 43.1564626,184.625458 43.1564626,184.280556 L43.1564626,169.966791 Z" id="Fill-9" fill="#222222"></path>
                        <path d="M51.4557823,170.017992 C51.4557823,169.651534 51.5204291,169.392857 51.9298584,169.392857 C52.3392877,169.392857 52.6409725,169.543752 52.6409725,169.823985 L52.6409725,184.612321 C52.6409725,184.849441 52.1668964,184.914111 51.8652117,184.914111 C51.541978,184.914111 51.4557823,184.806329 51.4557823,184.504539 L51.4557823,170.017992 Z" id="Fill-11" fill="#222222"></path>
                        <path d="M55.6054422,169.974879 C55.6054422,169.56564 55.64854,169.392857 56.1872628,169.392857 L60.4539476,169.392857 C60.734415,169.392857 60.3465346,170.621571 60.0448498,170.621571 L57.2000617,170.621571 C56.9845726,170.621571 56.8121813,170.707796 56.8121813,171.096142 L56.8121813,174.933177 C56.8121813,175.127185 56.8337302,175.321192 57.1785128,175.321192 L59.0963661,175.321192 C59.7428335,175.321192 59.2906378,176.636131 58.9458552,176.636131 L57.2000617,176.636131 C57.0276704,176.636131 56.8121813,176.657687 56.8121813,176.894807 L56.8121813,184.482983 C56.8121813,184.698215 56.3165563,184.914111 56.0795183,184.914111 C55.8209313,184.914111 55.6054422,184.935667 55.6054422,184.418314 L55.6054422,169.974879 Z" id="Fill-13" fill="#222222"></path>
                        <path d="M63.9047619,169.996104 C63.9047619,169.651202 63.9694086,169.478751 64.2710934,169.392857 L64.378838,169.392857 L69.2276749,169.392857 C69.5078108,169.392857 69.0983815,170.642795 68.8182456,170.642795 L65.4993815,170.642795 C65.3054413,170.642795 65.1330499,170.729021 65.1330499,171.095479 L65.1330499,174.84662 C65.1330499,175.061852 65.1545989,175.234635 65.4778326,175.234635 L67.5465282,175.234635 C68.1717782,175.234635 67.7189195,176.528017 67.3741369,176.528017 L65.4993815,176.528017 C65.3269902,176.528017 65.1330499,176.57113 65.1330499,176.829807 L65.1330499,183.1246 C65.1330499,183.490727 65.3054413,183.577284 65.4993815,183.577284 L68.7966967,183.577284 C69.0768326,183.577284 69.464713,184.805997 69.1630282,184.805997 L64.4650336,184.805997 L64.4219358,184.805997 L64.378838,184.805997 L64.2710934,184.805997 C63.9694086,184.741328 63.9047619,184.568877 63.9047619,184.223975 L63.9047619,169.996104 Z" id="Fill-15" fill="#222222"></path>
                        <path d="M89.9260284,182.439377 C89.9475773,183.064512 90.4001044,183.862098 91.5206479,183.862098 C92.4472512,183.862098 93.1583653,183.064512 93.1583653,182.547159 C93.1583653,182.224145 94.3651044,182.051362 94.3651044,182.698054 C94.3651044,184.012993 92.9213273,185.15548 91.1974142,184.961473 C89.8182838,184.789022 88.7408381,183.79776 88.8054849,182.439377 L88.8054849,171.962647 C88.7408381,170.561483 89.8182838,169.591446 91.1974142,169.418663 C92.9213273,169.203431 94.3651044,170.367475 94.3651044,171.682083 C94.3651044,172.307549 93.1583653,172.156655 93.1583653,171.833309 C93.1583653,171.315956 92.4472512,170.496814 91.5206479,170.496814 C90.4001044,170.496814 89.9475773,171.315956 89.9260284,171.919534 L89.9260284,182.439377 Z" id="Fill-23" fill="#EC1D24"></path>
                        <path d="M101.627313,169.996436 C101.627313,169.651534 101.756606,169.392857 102.101389,169.392857 C102.489269,169.392857 102.790954,169.522195 102.790954,169.823985 L102.790954,184.61199 C102.790954,184.827885 102.359976,185.021892 102.058291,185.021892 C101.756606,185.021892 101.648861,184.805997 101.648861,184.482983 L101.648861,177.17504 C101.627313,176.93792 101.47647,176.808582 101.28253,176.808582 L98.6966604,176.808582 C98.4380734,176.808582 98.3303289,176.851695 98.3087799,177.067258 L98.3087799,184.633878 C98.3087799,184.870998 97.8562528,185.043449 97.554568,185.043449 C97.2528832,185.043449 97.1020408,184.827885 97.1020408,184.547652 L97.1020408,169.996436 C97.1020408,169.651534 97.2097854,169.392857 97.6192147,169.392857 C97.9855463,169.392857 98.3087799,169.522195 98.3087799,169.823985 L98.3087799,175.170297 C98.3087799,175.385861 98.3087799,175.579868 98.5242691,175.601093 L101.433372,175.601093 C101.584215,175.579868 101.627313,175.450199 101.627313,175.342748 L101.627313,169.996436 Z" id="Fill-25" fill="#EC1D24"></path>
                        <path d="M109.938037,178.597761 C110.239722,178.597761 110.325918,178.597761 110.239722,178.209746 C109.744097,174.545162 109.356216,170.664683 109.29157,170.664683 L109.205374,170.664683 C109.140727,170.664683 108.752847,174.545162 108.257222,178.209746 C108.170695,178.597761 108.257222,178.597761 108.558907,178.597761 L109.938037,178.597761 Z M112.26532,184.43987 C112.26532,184.74166 112.071379,184.827885 111.812793,184.827885 C111.705048,184.827885 111.209423,184.827885 111.144776,184.504539 C111.144776,184.375201 110.886189,182.607578 110.584504,180.171376 C110.519858,179.934256 110.433662,179.934256 110.369015,179.934256 L108.127928,179.934256 C108.084831,179.934256 107.976754,179.934256 107.912439,180.171376 C107.610423,182.607578 107.352168,184.375201 107.352168,184.504539 C107.308738,184.827885 106.791564,184.827885 106.684151,184.827885 C106.425233,184.827885 106.231293,184.74166 106.231293,184.43987 C106.231293,184.116525 108.106379,170.017992 108.149146,169.780872 C108.214124,169.543752 108.364635,169.392857 108.580456,169.392857 L109.916488,169.392857 C110.131977,169.392857 110.325918,169.543752 110.325918,169.780872 C110.390564,170.017992 112.26532,184.116525 112.26532,184.43987 Z" id="Fill-27" fill="#EC1D24"></path>
                        <path d="M116.190476,169.966791 C116.190476,169.643114 116.212025,169.470995 116.556808,169.406326 C116.70765,169.384438 117.375666,169.341325 117.375666,169.72934 L117.375666,183.224625 C117.375666,183.612309 117.548058,183.676978 117.763547,183.676978 L121.017764,183.676978 C121.2979,183.676978 121.340998,184.862578 121.038982,184.862578 C120.759177,184.862578 116.578357,184.884135 116.556808,184.862578 C116.212025,184.819466 116.190476,184.625458 116.190476,184.280556 L116.190476,169.966791 Z" id="Fill-29" fill="#EC1D24"></path>
                        <path d="M124.489796,169.966791 C124.489796,169.643114 124.511345,169.470995 124.856127,169.406326 C125.007301,169.384438 125.674986,169.341325 125.674986,169.72934 L125.674986,183.224625 C125.674986,183.612309 125.847377,183.676978 126.062867,183.676978 L129.317084,183.676978 C129.596888,183.676978 129.640318,184.862578 129.338633,184.862578 C129.058165,184.862578 124.877676,184.884135 124.856127,184.862578 C124.511345,184.819466 124.489796,184.625458 124.489796,184.280556 L124.489796,169.966791 Z" id="Fill-31" fill="#EC1D24"></path>
                        <path d="M132.789116,169.996104 C132.789116,169.651202 132.853762,169.478751 133.155447,169.392857 L133.263192,169.392857 L138.112029,169.392857 C138.391833,169.392857 137.982735,170.642795 137.702268,170.642795 L134.384067,170.642795 C134.190127,170.642795 134.017404,170.729021 134.017404,171.095479 L134.017404,174.84662 C134.017404,175.061852 134.039284,175.234635 134.362186,175.234635 L136.430882,175.234635 C137.0558,175.234635 136.603605,176.528017 136.258822,176.528017 L134.384067,176.528017 C134.211344,176.528017 134.017404,176.57113 134.017404,176.829807 L134.017404,183.1246 C134.017404,183.490727 134.190127,183.577284 134.384067,183.577284 L137.68105,183.577284 C137.961186,183.577284 138.349067,184.805997 138.04705,184.805997 L133.349387,184.805997 L133.306621,184.805997 L133.263192,184.805997 L133.155447,184.805997 C132.853762,184.741328 132.789116,184.568877 132.789116,184.223975 L132.789116,169.996104 Z" id="Fill-33" fill="#EC1D24"></path>
                        <path d="M147.607612,169.827891 L147.607612,184.379107 C147.607612,184.616227 147.155085,184.96113 146.8534,184.96113 C146.767204,184.96113 146.702558,184.918017 146.637579,184.853348 C146.508617,184.745566 146.422422,184.573115 146.357443,184.400664 C146.271579,184.206656 144.374943,177.976532 143.082009,173.837708 L143.082009,184.379107 C143.082009,184.616227 142.629481,184.96113 142.327797,184.96113 C142.026112,184.96113 141.939916,184.573115 141.939916,184.271325 L141.918367,169.978785 L141.918367,169.935673 C141.918367,169.827891 141.918367,169.763553 141.961465,169.676996 C142.026112,169.504545 142.133856,169.396763 142.392443,169.396763 L142.500188,169.396763 C142.737226,169.375539 142.931166,169.439876 143.017362,169.612659 C143.06046,169.65544 143.082009,169.720441 143.082009,169.827891 C143.470221,171.035379 145.279998,177.351729 146.46552,181.124095 C146.46552,176.92027 146.443639,169.978785 146.443639,169.978785 C146.443639,169.65544 146.551384,169.396763 146.939264,169.396763 C147.327145,169.396763 147.607612,169.526102 147.607612,169.827891" id="Fill-35" fill="#EC1D24"></path>
                        <g id="Group-39" transform="translate(150.217687, 169.392857)">
                            <mask id="mask-2" fill="white">
                                <use xlink:href="#path-1"></use>
                            </mask>
                            <g id="Clip-38"></g>
                            <path d="M5.6737625,13.9804369 L5.6737625,14.0238813 L5.6737625,14.1101068 C5.58756685,15.3600449 4.1868875,16.4381953 2.5276212,16.2226316 C1.12661033,16.0498489 0.0710451087,15.1017 0.113811413,13.6789793 L0.113811413,2.77079014 C0.0710451087,1.36962575 1.12661033,0.421145244 2.5276212,0.227137867 C4.25153424,-0.0103138965 5.6737625,1.17561838 5.6737625,2.49055727 C5.6737625,3.11569215 4.5101212,2.94324114 4.5101212,2.64178353 C4.5101212,2.10287415 3.77745815,1.30495663 2.8724038,1.30495663 C1.7087625,1.30495663 1.25623533,2.10287415 1.23435489,2.74923377 L1.23435489,13.700204 C1.25623533,14.3468953 1.7087625,15.1660375 2.8724038,15.1660375 C3.75590924,15.1660375 4.48857228,14.3687833 4.5101212,13.8510986 L4.5101212,10.0140639 C4.5101212,9.8847256 4.40237663,9.7985001 4.29463207,9.7985001 L3.43267554,9.7985001 C3.15253967,9.7985001 2.74311033,9.7122746 2.74311033,9.38892897 C2.74311033,9.08713972 3.10944185,8.61256783 3.32493098,8.61256783 C3.32493098,8.61256783 4.3592788,8.37577934 5.07039293,8.61256783 C5.75995815,8.87157597 5.6737625,10.078733 5.6737625,10.078733 L5.6737625,13.9592122 L5.6737625,13.9804369 Z" id="Fill-37" fill="#EC1D24" mask="url(#mask-2)"></path>
                        </g>
                        <path d="M160.176871,169.996104 C160.176871,169.651202 160.241517,169.478751 160.543202,169.392857 L160.650947,169.392857 L165.499784,169.392857 C165.779588,169.392857 165.37049,170.642795 165.090023,170.642795 L161.771822,170.642795 C161.577882,170.642795 161.405159,170.729021 161.405159,171.095479 L161.405159,174.84662 C161.405159,175.061852 161.427039,175.234635 161.749941,175.234635 L163.818637,175.234635 C164.443556,175.234635 163.99136,176.528017 163.646577,176.528017 L161.771822,176.528017 C161.599099,176.528017 161.405159,176.57113 161.405159,176.829807 L161.405159,183.1246 C161.405159,183.490727 161.577882,183.577284 161.771822,183.577284 L165.068806,183.577284 C165.348941,183.577284 165.736822,184.805997 165.434806,184.805997 L160.737142,184.805997 L160.694376,184.805997 L160.650947,184.805997 L160.543202,184.805997 C160.241517,184.741328 160.176871,184.568877 160.176871,184.223975 L160.176871,169.996104 Z" id="Fill-40" fill="#EC1D24"></path>
                        <path d="M178.822391,178.597761 C179.124076,178.597761 179.210271,178.597761 179.124076,178.209746 C178.628451,174.545162 178.24057,170.664683 178.175923,170.664683 L178.089728,170.664683 C178.025081,170.664683 177.637201,174.545162 177.141576,178.209746 C177.05538,178.597761 177.141576,178.597761 177.44326,178.597761 L178.822391,178.597761 Z M181.150005,184.43987 C181.150005,184.74166 180.955733,184.827885 180.697146,184.827885 C180.589402,184.827885 180.093777,184.827885 180.02913,184.504539 C180.02913,184.375201 179.770543,182.607578 179.468858,180.171376 C179.404211,179.934256 179.318016,179.934256 179.253369,179.934256 L177.012282,179.934256 C176.968853,179.934256 176.86144,179.934256 176.796793,180.171376 C176.494777,182.607578 176.23619,184.375201 176.23619,184.504539 C176.193092,184.827885 175.67625,184.827885 175.568505,184.827885 C175.309586,184.827885 175.115646,184.74166 175.115646,184.43987 C175.115646,184.116525 176.990733,170.017992 177.0335,169.780872 C177.098478,169.543752 177.24932,169.392857 177.464478,169.392857 L178.800842,169.392857 C179.016331,169.392857 179.210271,169.543752 179.210271,169.780872 C179.274918,170.017992 181.150005,184.116525 181.150005,184.43987 Z" id="Fill-42" fill="#222222"></path>
                        <path d="M185.368204,182.439377 C185.389753,183.064512 185.842612,183.862098 186.963156,183.862098 C187.889427,183.862098 188.600873,183.064512 188.600873,182.547159 C188.600873,182.224145 189.807612,182.051362 189.807612,182.698054 C189.807612,184.012993 188.363503,185.15548 186.639922,184.961473 C185.260791,184.789022 184.183014,183.79776 184.247661,182.439377 L184.247661,171.962647 C184.183014,170.561483 185.260791,169.591446 186.639922,169.418663 C188.363503,169.203431 189.807612,170.367475 189.807612,171.682083 C189.807612,172.307549 188.600873,172.156655 188.600873,171.833309 C188.600873,171.315956 187.889427,170.496814 186.963156,170.496814 C185.842612,170.496814 185.389753,171.315956 185.368204,171.919534 L185.368204,182.439377 Z" id="Fill-44" fill="#222222"></path>
                        <path d="M194.497456,182.439377 C194.519005,183.064512 194.971864,183.862098 196.092407,183.862098 C197.018679,183.862098 197.730125,183.064512 197.730125,182.547159 C197.730125,182.224145 198.936864,182.051362 198.936864,182.698054 C198.936864,184.012993 197.492755,185.15548 195.769174,184.961473 C194.390043,184.789022 193.312266,183.79776 193.376913,182.439377 L193.376913,171.962647 C193.312266,170.561483 194.390043,169.591446 195.769174,169.418663 C197.492755,169.203431 198.936864,170.367475 198.936864,171.682083 C198.936864,172.307549 197.730125,172.156655 197.730125,171.833309 C197.730125,171.315956 197.018679,170.496814 196.092407,170.496814 C194.971864,170.496814 194.519005,171.315956 194.497456,171.919534 L194.497456,182.439377 Z" id="Fill-46" fill="#222222"></path>
                        <path d="M202.503401,169.996104 C202.503401,169.651202 202.568048,169.478751 202.869733,169.392857 L202.977477,169.392857 L207.826314,169.392857 C208.106119,169.392857 207.697021,170.642795 207.416554,170.642795 L204.098352,170.642795 C203.904412,170.642795 203.731689,170.729021 203.731689,171.095479 L203.731689,174.84662 C203.731689,175.061852 203.75357,175.234635 204.076472,175.234635 L206.145168,175.234635 C206.770086,175.234635 206.31789,176.528017 205.973108,176.528017 L204.098352,176.528017 C203.92563,176.528017 203.731689,176.57113 203.731689,176.829807 L203.731689,183.1246 C203.731689,183.490727 203.904412,183.577284 204.098352,183.577284 L207.395336,183.577284 C207.675472,183.577284 208.063352,184.805997 207.761336,184.805997 L203.063673,184.805997 L203.020907,184.805997 L202.977477,184.805997 L202.869733,184.805997 C202.568048,184.741328 202.503401,184.568877 202.503401,184.223975 L202.503401,169.996104 Z" id="Fill-48" fill="#222222"></path>
                        <path d="M212.817843,175.071003 C212.817843,175.26501 212.860941,175.437129 213.184175,175.437129 C213.507408,175.437129 214.089229,175.459017 214.326267,175.437129 C216.265669,175.26501 216.222903,173.885402 216.201023,173.130597 C216.179805,172.246786 216.28755,170.867178 214.455561,170.67317 C213.874072,170.608501 213.335349,170.630058 213.205724,170.630058 C213.011783,170.630058 212.817843,170.695058 212.817843,171.083073 L212.817843,175.071003 Z M213.162626,176.730843 C213.011783,176.730843 212.88249,176.817069 212.88249,177.011408 L212.88249,184.383688 C212.88249,184.599252 212.343767,184.96571 212.106398,184.96571 C211.869691,184.96571 211.654202,184.814816 211.654202,184.297463 L211.632653,169.962142 C211.632653,169.573795 211.675751,169.401344 212.214474,169.401344 C212.580805,169.401344 213.787544,169.358231 214.692599,169.466345 C217.623251,169.768134 217.386213,172.268674 217.386213,173.130597 C217.386213,173.130597 217.537055,176.084152 214.951517,176.666506 C214.520207,176.7524 213.895289,176.730843 213.162626,176.730843 Z" id="Fill-50" fill="#222222"></path>
                        <path d="M222.518174,170.750909 C222.518174,170.750909 222.518174,170.513789 222.323902,170.513789 L220.664636,170.513789 C220.362951,170.513789 219.931973,170.427563 219.931973,170.104549 C219.931973,169.780872 220.319853,169.392857 220.556891,169.392857 L225.836706,169.392857 C226.138391,169.392857 226.289234,169.651865 226.289234,170.017992 C226.289234,170.427563 226.009098,170.535677 225.642766,170.535677 L224.134342,170.535677 C223.897304,170.535677 223.746462,170.643459 223.703033,170.837466 L223.703033,184.569209 C223.703033,184.806329 223.315152,184.914111 222.99225,184.914111 C222.690565,184.914111 222.539391,184.763216 222.518174,184.461427 L222.518174,170.750909 Z" id="Fill-52" fill="#222222"></path>
                        <path d="M229.891156,169.996104 C229.891156,169.651202 229.955803,169.478751 230.257488,169.392857 L230.365233,169.392857 L235.21407,169.392857 C235.493874,169.392857 235.084776,170.642795 234.804309,170.642795 L231.486108,170.642795 C231.292167,170.642795 231.119445,170.729021 231.119445,171.095479 L231.119445,174.84662 C231.119445,175.061852 231.141325,175.234635 231.464227,175.234635 L233.532923,175.234635 C234.157841,175.234635 233.705646,176.528017 233.360863,176.528017 L231.486108,176.528017 C231.313385,176.528017 231.119445,176.57113 231.119445,176.829807 L231.119445,183.1246 C231.119445,183.490727 231.292167,183.577284 231.486108,183.577284 L234.783091,183.577284 C235.063227,183.577284 235.451108,184.805997 235.149091,184.805997 L230.451428,184.805997 L230.408662,184.805997 L230.365233,184.805997 L230.257488,184.805997 C229.955803,184.741328 229.891156,184.568877 229.891156,184.223975 L229.891156,169.996104 Z" id="Fill-54" fill="#222222"></path>
                        <path d="M242.50059,172.690983 C242.50059,171.87184 242.737628,170.837134 241.099579,170.664683 C240.539308,170.621571 239.720449,170.664683 239.634253,170.664683 C239.440645,170.664683 239.267922,170.729352 239.267922,171.117367 L239.267922,183.25427 C239.267922,183.577284 239.440645,183.663509 239.634253,183.663509 C239.720449,183.663509 240.539308,183.706622 241.099579,183.663509 C242.737628,183.469502 242.50059,182.434796 242.50059,181.594097 L242.50059,172.690983 Z M243.642351,181.464759 C243.642351,182.283901 243.90127,184.482983 241.3154,184.784441 C240.474992,184.870998 239.052764,184.870998 238.750748,184.870998 L238.686101,184.870998 L238.643003,184.870998 L238.535259,184.870998 C238.233574,184.827885 238.190476,184.655102 238.190476,184.353313 L238.190476,169.952991 C238.190476,169.629977 238.233574,169.457526 238.535259,169.392857 L238.643003,169.392857 C238.664552,169.392857 240.474992,169.392857 241.3154,169.500639 C243.90127,169.780872 243.642351,172.022403 243.642351,172.820321 L243.642351,181.464759 Z" id="Fill-56" fill="#222222"></path>
                        <path d="M122.404357,33.133011 C137.704417,33.133011 151.179118,41.1002472 158.901254,53.1048268 L168.466651,48.1959427 C166.27264,44.6398041 163.65196,41.3128263 160.623841,38.2836581 C150.41496,28.0715741 136.841797,22.44735 122.404357,22.44735 C107.966917,22.44735 94.3937538,28.0715741 84.1848734,38.2836581 C75.2453897,47.2262374 69.8233516,58.7492807 68.6129658,71.1737121 L79.3648788,71.1737121 C82.0054495,49.763257 100.298819,33.133011 122.404357,33.133011" id="Fill-58" fill="#222222"></path>
                        <path d="M173.142068,57.8060732 L163.530259,62.7388352 C164.98365,67.0693451 165.772672,71.7023076 165.772672,76.5163437 C165.772672,100.438282 146.317982,119.89971 122.404324,119.89971 C100.298786,119.89971 82.0054163,103.269463 79.3648457,81.85934 L68.6129326,81.85934 C69.8233185,94.2834397 75.245688,105.806483 84.1848402,114.749062 C94.3937207,124.961478 107.966884,130.585702 122.404324,130.585702 C136.841764,130.585702 150.414927,124.961478 160.623808,114.749062 C170.832357,104.536647 176.454634,90.9587834 176.454634,76.5163437 C176.454634,70.0292013 175.317183,63.7178262 173.142068,57.8060732" id="Fill-60" fill="#222222"></path>
                        <path d="M159.672075,22.2866389 C176.899271,34.1705027 188.21245,54.0461439 188.21245,76.5165095 C188.21245,81.6575391 187.619026,86.6629295 186.499477,91.4676797 L196.709021,94.7429222 C198.158102,88.8179037 198.894743,82.7230874 198.894743,76.5165095 C198.894743,66.1890159 196.871466,56.1679545 192.881271,46.7309051 C189.028657,37.6188595 183.514124,29.4367227 176.490836,22.4110026 C172.730053,18.6489177 168.634102,15.3239297 164.244754,12.4506307 C163.898977,12.2244546 163.549222,12.0039163 163.200129,11.783378 L158.121216,21.2482849 C158.14807,21.26553 158.174923,21.2821118 158.201776,21.2993569 C158.69707,21.6217076 159.186396,21.951686 159.672075,22.2866389" id="Fill-62" fill="#222222"></path>
                        <path d="M183.22759,101.640067 C173.337633,125.510933 149.801247,142.347457 122.404291,142.347457 C118.387573,142.347457 114.454068,141.983984 110.633943,141.291195 L107.847171,151.647541 C112.609813,152.565843 117.471579,153.033118 122.404291,153.033118 C132.728209,153.033118 142.746133,151.009141 152.179584,147.017563 C161.288144,143.163615 169.46778,137.647173 176.491068,130.621784 C183.514024,123.596396 189.028557,115.413927 192.881171,106.301882 C193.075443,105.842233 193.261427,105.380264 193.446084,104.918294 L183.22759,101.640067 Z" id="Fill-64" fill="#222222"></path>
                        <path d="M56.5963304,76.5165095 C56.5963304,59.9041718 62.7821946,44.7119018 72.9668739,33.1165618 L65.4933793,25.3947366 C59.8038033,31.720372 55.2473685,38.87941 51.9275098,46.7312367 C47.9373141,56.1679545 45.9143685,66.1890159 45.9143685,76.5165095 C45.9143685,86.8436714 47.9373141,96.8650644 51.9275098,106.301782 C55.7804554,115.414159 61.2946565,123.596296 68.317613,130.621685 C75.3409011,137.647405 83.5202054,143.163515 92.6290967,147.017464 C94.2449337,147.701298 95.8786728,148.322785 97.5266674,148.890547 L100.315428,138.528232 C74.8615207,129.427462 56.5963304,105.067431 56.5963304,76.5165095" id="Fill-66" fill="#222222"></path>
                        <path d="M152.179485,6.01525676 C142.746034,2.02367934 132.72811,3.31636544e-05 122.404523,3.31636544e-05 C112.080604,3.31636544e-05 102.063012,2.02367934 92.6292293,6.01525676 C85.5426207,9.01358273 79.0219196,13.0227369 73.1669141,17.9611366 L80.6384196,25.6806404 C92.0082891,16.3162194 106.561099,10.6856942 122.404523,10.6856942 C131.754762,10.6856942 140.654463,12.6483192 148.717072,16.18058 L153.793001,6.72031605 C153.258588,6.47954792 152.72086,6.24408597 152.179485,6.01525676" id="Fill-68" fill="#222222"></path>
                        <path d="M97.7840277,62.7254039 C97.7840277,62.1400654 97.8231473,61.8276638 98.4470712,61.7105961 C98.7202451,61.6717946 99.9296364,61.5935284 99.9296364,62.2962662 L99.9296364,86.7229557 C99.9296364,87.4253619 100.241598,87.5424296 100.631468,87.5424296 L106.521615,87.5424296 C107.028843,87.5424296 107.106751,89.6884496 106.560734,89.6884496 C106.053506,89.6884496 98.4861908,89.7275828 98.4470712,89.6884496 C97.8231473,89.6105151 97.7840277,89.259312 97.7840277,88.6348403 L97.7840277,62.7254039 Z" id="Fill-70" fill="#222222"></path>
                        <path d="M131.096128,75.8375168 C131.096128,76.539923 130.862073,77.164063 130.237818,77.164063 L123.216519,77.164063 L123.216519,83.8369218 C123.216519,84.539328 123.021916,85.0464003 122.280302,85.0464003 C121.57847,85.0464003 120.954215,84.8122649 120.954215,84.1877933 L120.954215,77.164063 L113.815889,77.164063 C113.269872,77.164063 113.074937,76.3449207 113.074937,75.7204491 C113.074937,75.2130452 113.464807,74.9009752 114.440144,74.9009752 L120.954215,74.9009752 L120.954215,67.7601772 C120.954215,67.2139718 121.773405,67.0189695 122.39766,67.0189695 C122.904557,67.0189695 123.216519,67.4089741 123.216519,68.3846488 L123.216519,74.9009752 L129.887068,74.9009752 C130.589231,74.9009752 131.096128,75.0963091 131.096128,75.8375168" id="Fill-72" fill="#EB2126"></path>
                        <path d="M139.248513,85.2401092 C139.287632,86.3716531 140.106822,87.8155986 142.135072,87.8155986 C143.812572,87.8155986 145.09954,86.3716531 145.09954,85.4354431 C145.09954,84.849773 147.283936,84.5380347 147.283936,85.70838 C147.283936,88.0888671 144.670551,90.1566209 141.549936,89.8057495 C139.053578,89.4933479 137.103235,87.6985309 137.220263,85.2401092 L137.220263,66.2761368 C137.103235,63.7397806 139.053578,61.9840967 141.549936,61.6716951 C144.670551,61.2816905 147.283936,63.3885775 147.283936,65.7690646 C147.283936,66.9006085 145.09954,66.6273399 145.09954,66.0420014 C145.09954,65.1057915 143.812572,63.6227129 142.135072,63.6227129 C140.106822,63.6227129 139.287632,65.1057915 139.248513,66.1982023 L139.248513,85.2401092 Z" id="Fill-74" fill="#222222"></path>
                        <path d="M73.0340136,183.929173 C73.0340136,182.808241 73.184856,182.678571 73.7235788,182.678571 C74.3700462,182.678571 74.8229049,182.93758 74.8229049,183.325594 L74.8229049,184.532751 C74.8229049,184.920766 74.1545571,185.071661 73.5511875,185.071661 C73.184856,185.071661 73.0340136,184.381857 73.0340136,183.929173" id="Fill-17" fill="#222222"></path>
                        <path d="M78.0136054,183.929173 C78.0136054,182.808241 78.1644478,182.678571 78.7031707,182.678571 C79.3496381,182.678571 79.8021652,182.93758 79.8021652,183.325594 L79.8021652,184.532751 C79.8021652,184.920766 79.1341489,185.071661 78.5307794,185.071661 C78.1644478,185.071661 78.0136054,184.381857 78.0136054,183.929173" id="Fill-19" fill="#222222"></path>
                        <path d="M82.9931973,183.929173 C82.9931973,182.808241 83.1440397,182.678571 83.6827625,182.678571 C84.3292299,182.678571 84.7817571,182.93758 84.7817571,183.325594 L84.7817571,184.532751 C84.7817571,184.920766 84.1137408,185.071661 83.5103712,185.071661 C83.1440397,185.071661 82.9931973,184.381857 82.9931973,183.929173" id="Fill-21" fill="#222222"></path>
                    </g>
                </g>
            </g>
        </g>
    </g>
</svg>