<?xml version="1.0" encoding="UTF-8"?>
<svg width="19px" height="19px" viewBox="0 0 19 19" version="1.1" xmlns="http://www.w3.org/2000/svg" xmlns:xlink="http://www.w3.org/1999/xlink">
    <!-- Generator: Sketch 50.2 (55047) - http://www.bohemiancoding.com/sketch -->
    <title>Group</title>
    <desc>Created with Sketch.</desc>
    <defs></defs>
    <g id="Together" stroke="none" stroke-width="1" fill="none" fill-rule="evenodd" stroke-linecap="round" stroke-linejoin="round">
        <g id="DesktopSmall" transform="translate(-654.000000, -2898.000000)" stroke="#FFFFFF">
            <g id="OurApproach" transform="translate(60.000000, 2672.000000)">
                <g id="Group-9" transform="translate(554.000000, 208.000000)">
                    <g id="Group" transform="translate(41.000000, 19.000000)">
                        <polygon id="Stroke-2895" points="17 17 0 17 0 0 17 0"></polygon>
                        <path d="M7.4840562,3 L15.3320641,3" id="Stroke-2896"></path>
                        <path d="M7.5351102,6 L15,6" id="Stroke-2897"></path>
                        <path d="M7.5351102,9 L15,9" id="Stroke-2898"></path>
                        <path d="M10,12 L15.3320641,12" id="Stroke-2900"></path>
                        <polygon id="Stroke-2901" points="5 5 2 5 2 2 5 2"></polygon>
                        <polygon id="Stroke-2902" points="5 10 2 10 2 7 5 7"></polygon>
                        <polygon id="Stroke-2903" points="5 15 2 15 2 12 5 12"></polygon>
                    </g>
                </g>
            </g>
        </g>
    </g>
</svg>